[
  {
    "name": "Samsung Galaxy S21",
    "categoryId": "0",
    "image": "/images/smartphones/galaxy-s21.webp",
    "stock": "Закончились :(",
    "description": "Смартфон Samsung Galaxy S21 с мощным процессором, камерой высокого разрешения и поддержкой 5G."
  },
  {
    "name": "iPhone 13",
    "categoryId": "0",
    "image": "/images/smartphones/Xiaomi-Mi-11.jpg",
    "stock": 12,
    "description": "Смартфон iPhone 13 с мощным процессором, камерой высокого разрешения и новейшей версией операционной системы iOS."
  },
  {
    "name": "Xiaomi Mi 11",
    "categoryId": "0",
    "image": "/images/smartphones/Xiaomi-Mi-11.jpg",
    "stock": 15,
    "description": "Смартфон Xiaomi Mi 11 с камерой высокого разрешения, мощным процессором и поддержкой 5G."
  },
  {
    "name": "HP Spectre x360",
    "categoryId": "1",
    "image": "/images/notebooks/hp-envy.jpeg",
    "stock": 10,
    "description": "Ноутбук HP Spectre x360 с сенсорным экраном, мощным процессором и встроенной графической картой."
  },
  {
    "name": "MacBook Pro",
    "categoryId": "1",
    "image": "/images/notebooks/lenovo-yoga.webp",
    "stock": 11,
    "description": "Ноутбук MacBook Pro с процессором Apple M1, высококачественным дисплеем Retina и продолжительным временем работы от аккумулятора."
  },
  {
    "name": "Lenovo ThinkPad X1 Carbon",
    "categoryId": "1",
    "image": "/images/notebooks/hp-envy.jpeg",
    "stock": 13,
    "description": "Ноутбук Lenovo ThinkPad X1 Carbon с высококачественным экраном, мощным процессором и продолжительным временем работы от аккумулятора."
  },
  {
    "name": "Canon EOS R5",
    "categoryId": "4",
    "image": "/images/cameras/fujifilm.jpeg",
    "stock": 10,
    "description": "Фотоаппарат Canon EOS R5 с матрицей высокого разрешения, быстрым автофокусом и возможностью съемки видео в разрешении 8K."
  },
  {
    "name": "Sony A7 III",
    "categoryId": "4",
    "image": "/images/cameras/sony-alfa.jpeg",
    "stock": 12,
    "description": "Фотоаппарат Sony A7 III с полнокадровой матрицей, высоким динамическим диапазоном и быстрым автофокусом."
  },
  {
    "name": "Nikon D850",
    "categoryId": "4",
    "image": "/images/cameras/fujifilm.jpeg",
    "stock": 14,
    "description": "Фотоаппарат Nikon D850 с полнокадровой матрицей, быстрым автофокусом и возможностью съемки видео в разрешении 4K."
  },
  {
    "name": "Dell UltraSharp U2718Q",
    "categoryId": "2",
    "image": "/images/monitors/dell-ultraS.jpeg",
    "stock": 10,
    "description": "Монитор Dell UltraSharp U2718Q с диагональю 27 дюймов, разрешением 4K и широкими углами обзора."
  },
  {
    "name": "LG 32GK650F-B",
    "categoryId": "2",
    "image": "/images/monitors/benq.jpg",
    "stock": 11,
    "description": "Монитор LG 32GK650F-B с диагональю 32 дюйма, разрешением QHD и поддержкой технологии AMD FreeSync."
  },
  {
    "name": "ASUS ROG Swift PG279QZ",
    "categoryId": "2",
    "image": "/images/monitors/hp-pavilion.jpeg",
    "stock": 13,
    "description": "Монитор ASUS ROG Swift PG279QZ с диагональю 27 дюймов, разрешением 2K и поддержкой технологии G-Sync."
  },
  {
    "name": "Logitech MX Master 3",
    "categoryId": "3",
    "image": "/images/mouses/1.jpg",
    "stock": 10,
    "description": "Компьютерная мышь Logitech MX Master 3 с быстрой беспроводной связью, множеством дополнительных кнопок и эргономичным дизайном."
  },
  {
    "name": "Microsoft Surface Precision Mouse",
    "categoryId": "3",
    "image": "/images/mouses/2.jpg",
    "stock": 12,
    "description": "Компьютерная мышь Microsoft Surface Precision Mouse с поддержкой беспроводной связи и множеством дополнительных функций."
  },
  {
    "name": "Razer DeathAdder V2",
    "categoryId": "3",
    "image": "/images/mouses/6.jpeg",
    "stock": 14,
    "description": "Компьютерная мышь Razer DeathAdder V2 с поддержкой высокочувствительного оптического сенсора и множеством настраиваемых функций."
  },
  {
    "name": "OnePlus 9",
    "categoryId": "0",
    "image": "/images/smartphones/galaxy-s21.webp",
    "stock": 17,
    "description": "Смартфон OnePlus 9 с камерой Hasselblad, мощным процессором и поддержкой быстрой зарядки."
  },
  {
    "name": "Samsung Galaxy Book Pro 360",
    "categoryId": "1",
    "image": "/images/notebooks/lenovo-yoga.webp",
    "stock": 18,
    "description": "Ноутбук Samsung Galaxy Book Pro 360 с сенсорным экраном, мощным процессором и длительным временем работы от аккумулятора."
  },
  {
    "name": "Canon EOS RP",
    "categoryId": "4",
    "image": "/images/cameras/sony-alfa.jpeg",
    "stock": 16,
    "description": "Фотоаппарат Canon EOS RP с матрицей высокого разрешением, поддержкой съемки видео в разрешении 4K и встроенной Wi-Fi."
  },
  {
    "name": "Acer Nitro XV272U",
    "categoryId": "2",
    "image": "/images/monitors/nitro.webp",
    "stock": 9,
    "description": "Монитор Acer Nitro XV272U с диагональю 27 дюймов, разрешением 2K и поддержкой технологии AMD FreeSync."
  },
  {
    "name": "BenQ GW2480",
    "categoryId": "2",
    "image": "/images/monitors/benq.jpg",
    "stock": 14,
    "description": "Монитор BenQ GW2480 с диагональю 24 дюйма, разрешением Full HD и технологией Eye-Care для защиты глаз."
  },
  {
    "name": "Logitech G Pro X Superlight",
    "categoryId": "3",
    "image": "/images/mouses/14.webp",
    "stock": 13,
    "description": "Компьютерная мышь Logitech G Pro X Superlight с легким весом, высокой скоростью отклика и настраиваемыми кнопками."
  },
  {
    "name": "Microsoft Arc Mouse",
    "categoryId": "3",
    "image": "/images/mouses/1.jpg",
    "stock": 16,
    "description": "Компьютерная мышь Microsoft Arc Mouse с уникальным дизайном, поддержкой беспроводной связи и сенсорной поверхностью для скроллинга."
  },
  {
    "name": "Xiaomi Mi 11",
    "categoryId": "0",
    "image": "/images/smartphones/Xiaomi-Mi-11.jpg",
    "stock": 20,
    "description": "Смартфон Xiaomi Mi 11 с камерой 108 Мп, мощным процессором и поддержкой быстрой зарядки."
  },
  {
    "name": "Dell XPS 13",
    "categoryId": "1",
    "image": "/images/notebooks/hp-envy.jpeg",
    "stock": 11,
    "description": "Ноутбук Dell XPS 13 с диагональю 13 дюймов, процессором Intel Core i7 и длительным временем работы от аккумулятора."
  },
  {
    "name": "Nikon D3500",
    "categoryId": "4",
    "image": "/images/cameras/fujifilm.jpeg",
    "stock": 12,
    "description": "Фотоаппарат Nikon D3500 с матрицей 24.2 Мп, поддержкой Full HD видео и автоматическим режимом съемки."
  },
  {
    "name": "HP Pavilion 27q",
    "categoryId": "2",
    "image": "/images/monitors/hp-pavilion.jpeg",
    "stock": 8,
    "description": "Монитор HP Pavilion 27q с диагональю 27 дюймов, разрешением QHD и технологией AMD FreeSync для плавной картинки."
  },
  {
    "name": "AOC C24G1",
    "categoryId": "2",
    "image": "/images/monitors/dell-ultraS.jpeg",
    "stock": 10,
    "description": "Монитор AOC C24G1 с диагональю 23.6 дюйма, разрешением Full HD и технологией FreeSync для уменьшения разрывов между кадрами."
  },
  {
    "name": "Razer Viper Ultimate",
    "categoryId": "3",
    "image": "/images/mouses/2.jpg",
    "stock": 7,
    "description": "Компьютерная мышь Razer Viper Ultimate с беспроводной связью, легким весом и настраиваемыми кнопками."
  },
  {
    "name": "Logitech MX Master 3",
    "categoryId": "3",
    "image": "/images/mouses/6.jpeg",
    "stock": 11,
    "description": "Компьютерная мышь Logitech MX Master 3 с беспроводной связью, возможностью подключения к нескольким устройствам и удобным дизайном."
  },
  {
    "name": "Samsung Galaxy S21",
    "categoryId": "0",
    "image": "/images/smartphones/galaxy-s21.webp",
    "stock": 15,
    "description": "Смартфон Samsung Galaxy S21 с камерой 64 Мп, процессором Exynos 2100 и поддержкой быстрой зарядки."
  },
  {
    "name": "Xiaomi Redmi 10 Note",
    "categoryId": "0",
    "image": "/images/smartphones/Xiaomi-Mi-11.jpg",
    "stock": 15,
    "description": "Смартфон Xiaomi Redmi 10 Note с камерой 109 Мп, процессором Exynos 2100 и поддержкой быстрой зарядки."
  },
  {
    "name": "Iphone 14 Pro",
    "categoryId": "0",
    "image": "/images/smartphones/galaxy-s21.webp",
    "stock": 15,
    "description": "Модель оснащена дисплеем Super Retina XDR, пиковая яркость которого составляет 2000 кд/м². "
  },
  {
    "name": "Huawei P50 Pro",
    "categoryId": "0",
    "image": "/images/smartphones/Xiaomi-Mi-11.jpg",
    "stock": 15,
    "description": "Смартфон Huawei P50 Pro оснащен AMOLED-дисплеем с диагональю 6,6 дюйма и разрешением 1228×2700,"
  },
  {
    "name": "Huawei P60 Pro",
    "categoryId": "0",
    "image": "/images/smartphones/galaxy-s21.webp",
    "stock": 15,
    "description": "Смартфон Huawei P60 Pro оснащен AMOLED-дисплеем с диагональю 6,6 дюйма и разрешением 1228×2700,"
  },
  {
    "name": "Asus ROG Strix G17",
    "categoryId": "1",
    "image": "/images/notebooks/lenovo-yoga.webp",
    "stock": 9,
    "description": "Ноутбук Asus ROG Strix G17 с диагональю 17.3 дюйма, процессором Intel Core i7 и видеокартой Nvidia GeForce RTX 3070."
  },
  {
    "name": "Canon EOS 90D",
    "categoryId": "4",
    "image": "/images/cameras/sony-alfa.jpeg",
    "stock": 14,
    "description": "Фотоаппарат Canon EOS 90D с матрицей 32.5 Мп, поддержкой 4K видео и возможностью использования объективов Canon EF и EF-S."
  },
  {
    "name": "LG 29UM69G",
    "categoryId": "2",
    "image": "/images/monitors/hp-pavilion.jpeg",
    "stock": 6,
    "description": "Монитор LG 29UM69G с диагональю 29 дюймов, разрешением Full HD и технологией FreeSync для уменьшения разрывов между кадрами."
  },
  {
    "name": "Apple Magic Mouse 2",
    "categoryId": "3",
    "image": "/images/mouses/14.webp",
    "stock": 13,
    "description": "Компьютерная мышь Apple Magic Mouse 2 с беспроводной связью, многопродуктовой поверхностью и встроенным аккумулятором."
  },
  {
    "name": "HP Envy 13",
    "categoryId": "1",
    "image": "/images/notebooks/hp-envy.jpeg",
    "stock": 10,
    "description": "Ноутбук HP Envy 13 с диагональю 13.3 дюйма, процессором Intel Core i7 и длительным временем работы от аккумулятора."
  },
  {
    "name": "Sony Alpha a6600",
    "categoryId": "4",
    "image": "/images/cameras/fujifilm.jpeg",
    "stock": 5,
    "description": "Фотоаппарат Sony Alpha a6600 с матрицей 24.2 Мп, поддержкой 4K видео и встроенной системой стабилизации изображения."
  },
  {
    "name": "Dell Alienware AW3418DW",
    "categoryId": "2",
    "image": "/images/monitors/nitro.webp",
    "stock": 5,
    "description": "Монитор Dell Alienware AW3418DW с диагональю 34 дюйма, разрешением 3440x1440 и частотой обновления 120 Гц для плавного отображения быстрого движения."
  },
  {
    "name": "Logitech G Pro Wireless",
    "categoryId": "3",
    "image": "/images/mouses/1.jpg",
    "stock": 8,
    "description": "Компьютерная мышь Logitech G Pro Wireless с беспроводной связью, легким весом и высокой чувствительностью до 16000 DPI."
  },
  {
    "name": "Lenovo Yoga C740",
    "categoryId": "1",
    "image": "/images/notebooks/lenovo-yoga.webp",
    "stock": 12,
    "description": "Ноутбук Lenovo Yoga C740 с диагональю 14 дюймов, процессором Intel Core i5 и поддержкой сенсорного экрана."
  },
  {
    "name": "Nikon Z6 II",
    "categoryId": "4",
    "image": "/images/cameras/sony-alfa.jpeg",
    "stock": 9,
    "description": "Фотоаппарат Nikon Z6 II с матрицей 24.5 Мп, поддержкой 4K видео и встроенной системой стабилизации изображения."
  },
  {
    "name": "LG 27GL83A-B",
    "categoryId": "2",
    "image": "/images/monitors/benq.jpg",
    "stock": 11,
    "description": "Монитор LG 27GL83A-B с диагональю 27 дюймов, разрешением QHD и частотой обновления 144 Гц для плавного отображения быстрого движения."
  },
  {
    "name": "Logitech MX Anywhere 2S",
    "categoryId": "3",
    "image": "/images/mouses/2.jpg",
    "stock": 14,
    "description": "Компьютерная мышь Logitech MX Anywhere 2S с беспроводной связью, возможностью подключения к нескольким устройствам и удобным дизайном."
  },
  {
    "name": "Asus ZenBook Pro Duo",
    "categoryId": "1",
    "image": "/images/notebooks/hp-envy.jpeg",
    "stock": 7,
    "description": "Ноутбук Asus ZenBook Pro Duo с диагональю 15.6 дюйма, процессором Intel Core i9 и двумя экранами для удобной многозадачности."
  },
  {
    "name": "Sony Alpha a7 III",
    "categoryId": "4",
    "image": "/images/cameras/sony-alfa.jpeg",
    "stock": 16,
    "description": "Фотоаппарат Sony Alpha a7 III с матрицей 24.2 Мп, поддержкой 4K видео и встроенной системой стабилизации изображения, а также длительным временем работы на одной зарядке."
  },
  {
    "name": "Samsung Odyssey G7",
    "categoryId": "2",
    "image": "/images/monitors/dell-ultraS.jpeg",
    "stock": 13,
    "description": "Монитор Samsung Odyssey G7 с диагональю 27 дюймов, кривизной 1000R и частотой обновления 240 Гц для максимально плавного отображения игровых сцен."
  },
  {
    "name": "Logitech G502 Lightspeed",
    "categoryId": "3",
    "image": "/images/mouses/6.jpeg",
    "stock": 6,
    "description": "Компьютерная мышь Logitech G502 Lightspeed с беспроводной связью, подсветкой RGB и высокой чувствительностью до 16000 DPI."
  },
  {
    "name": "MacBook Pro 16",
    "categoryId": "1",
    "image": "/images/notebooks/lenovo-yoga.webp",
    "stock": 10,
    "description": "Ноутбук MacBook Pro 16 с диагональю 16 дюймов, процессором Intel Core i9 и дискретной графикой AMD Radeon Pro 5500M для максимальной производительности."
  },
  {
    "name": "Canon EOS R5",
    "categoryId": "4",
    "image": "/images/cameras/fujifilm.jpeg",
    "stock": 8,
    "description": "Фотоаппарат Canon EOS R5 с матрицей 45 Мп, поддержкой 8K видео и встроенной системой стабилизации изображения."
  },
  {
    "name": "AOC CQ32G1",
    "categoryId": "2",
    "image": "/images/monitors/hp-pavilion.jpeg",
    "stock": 9,
    "description": "Монитор AOC CQ32G1 с диагональю 31.5 дюйма, разрешением QHD и частотой обновления 144 Гц для максимально плавного отображения игровых сцен."
  },
  {
    "name": "Razer DeathAdder V2 Pro",
    "categoryId": "3",
    "image": "/images/mouses/14.webp",
    "stock": 11,
    "description": "Компьютерная мышь Razer DeathAdder V2 Pro с беспроводной связью, подсветкой RGB и высокой чувствительностью до 20000 DPI."
  },
  {
    "name": "HP Spectre x360",
    "categoryId": "1",
    "image": "/images/notebooks/hp-envy.jpeg",
    "stock": 15,
    "description": "Ноутбук HP Spectre x360 с диагональю 13.3 дюйма, процессором Intel Core i7 и поддержкой сенсорного экрана для максимального удобства."
  },
  {
    "name": "Sony Alpha a7R IV",
    "categoryId": "4",
    "image": "/images/cameras/sony-alfa.jpeg",
    "stock": 12,
    "description": "Фотоаппарат Sony Alpha a7R IV с матрицей 61 Мп, поддержкой 4K видео и встроенной системой стабилизации изображения."
  },
  {
    "name": "Logitech MX Master 3",
    "categoryId": "3",
    "image": "/images/mouses/1.jpg",
    "stock": 13,
    "description": "Компьютерная мышь Logitech MX Master 3 с беспроводной связью, поддержкой до 3 устройств и высокой чувствительностью до 4000 DPI."
  },
  {
    "name": "Dell XPS 13",
    "categoryId": "1",
    "image": "/images/notebooks/lenovo-yoga.webp",
    "stock": 11,
    "description": "Ноутбук Dell XPS 13 с диагональю 13.4 дюйма, процессором Intel Core i7 и поддержкой сенсорного экрана для максимального удобства."
  },
  {
    "name": "Nikon Z7 II",
    "categoryId": "4",
    "image": "/images/cameras/fujifilm.jpeg",
    "stock": 9,
    "description": "Фотоаппарат Nikon Z7 II с матрицей 45 Мп, поддержкой 4K видео и встроенной системой стабилизации изображения."
  },
  {
    "name": "SteelSeries Rival 600",
    "categoryId": "3",
    "image": "/images/mouses/2.jpg",
    "stock": 15,
    "description": "Компьютерная мышь SteelSeries Rival 600 с двумя сенсорами для максимальной точности и настраиваемыми весами для наилучшей адаптации под индивидуальный стиль игры."
  },
  {
    "name": "Asus ROG Zephyrus G14",
    "categoryId": "1",
    "image": "/images/notebooks/hp-envy.jpeg",
    "stock": 10,
    "description": "Ноутбук Asus ROG Zephyrus G14 с диагональю 14 дюймов, процессором AMD Ryzen 9 и дискретной графикой NVIDIA GeForce RTX 3060 для максимальной производительности."
  },
  {
    "name": "Fujifilm X-T4",
    "categoryId": "4",
    "image": "/images/cameras/fujifilm.jpeg",
    "stock": 8,
    "description": "Фотоаппарат Fujifilm X-T4 с матрицей 26 Мп, поддержкой 4K видео и встроенной системой стабилизации изображения для получения наилучших результатов при съемке."
  },
  {
    "name": "Acer Predator X35",
    "categoryId": "2",
    "image": "/images/monitors/nitro.webp",
    "stock": 5,
    "description": "Монитор Acer Predator X35 с диагональю 35 дюймов, разрешением UltraWide QHD и поддержкой технологии G-Sync Ultimate для максимально плавного отображения игровых сцен."
  },
  {
    "name": "Lenovo Legion Y740",
    "image": "/images/notebooks/lenovo-yoga.webp",
    "stock": 9,
    "description": "Ноутбук Lenovo Legion Y740 с диагональю 15.6 дюйма, процессором Intel Core i7 и дискретной графикой NVIDIA GeForce RTX 2060 для максимальной производительности."
  },
  {
    "name": "Sony Alpha a7 III",
    "categoryId": "4",
    "image": "/images/cameras/sony-alfa.jpeg",
    "stock": 7,
    "description": "Фотоаппарат Sony Alpha a7 III с матрицей 24 Мп, поддержкой 4K видео и встроенной системой стабилизации изображения для получения наилучших результатов при съемке."
  },
  {
    "name": "HP Pavilion Gaming Laptop",
    "categoryId": "1",
    "image": "/images/notebooks/hp-envy.jpeg",
    "stock": 11,
    "description": "Ноутбук HP Pavilion Gaming Laptop с диагональю 15.6 дюйма, процессором Intel Core i5 и дискретной графикой NVIDIA GeForce GTX 1650 для максимальной производительности."
  },
  {
    "name": "Canon EOS R5",
    "categoryId": "4",
    "image": "/images/cameras/fujifilm.jpeg",
    "stock": 6,
    "description": "Фотоаппарат Canon EOS R5 с матрицей 45 Мп, поддержкой 8K видео и встроенной системой стабилизации изображения для получения наилучших результатов при съемке."
  },
  {
    "name": "Dell XPS 13",
    "categoryId": "1",
    "image": "/images/notebooks/lenovo-yoga.webp",
    "stock": 10,
    "description": "Ноутбук Dell XPS 13 с диагональю 13.4 дюйма, процессором Intel Core i7 и интегрированной графикой Intel Iris Xe для максимальной производительности."
  },
  {
    "name": "Fujifilm X-T4",
    "categoryId": "4",
    "image": "/images/cameras/sony-alfa.jpeg",
    "stock": 8,
    "description": "Фотоаппарат Fujifilm X-T4 с матрицей 26.1 Мп, поддержкой 4K видео и встроенной системой стабилизации изображения для получения наилучших результатов при съемке."
  },
  {
    "name": "Canon EOS R5",
    "categoryId": "4",
    "image": "/images/cameras/fujifilm.jpeg",
    "stock": 7,
    "description": "Фотоаппарат Canon EOS R5 с матрицей 45 Мп, поддержкой 8K видео и встроенной системой стабилизации изображения для получения наилучших результатов при съемке."
  },
  {
    "name": "Увлажнитель воздуха Sencor SHF 2000",
    "categoryId": "5",
    "image": "/images/humidifiers/wet.jpeg",
    "stock": 5,
    "description": "Увлажнитель воздуха с технологией ультразвука, автоматическим отключением и подсветкой LED"
  },
  {
    "name": "Увлажнитель воздуха Timberk THU 04",
    "categoryId": "5",
    "image": "/images/humidifiers/uz.webp",
    "stock": 8,
    "description": "Ультразвуковой увлажнитель воздуха с контролем влажности и функцией очистки воды"
  },
  {
    "name": "Увлажнитель воздуха Ballu UHB-400",
    "categoryId": "5",
    "image": "/images/humidifiers/wet.jpeg",
    "stock": 12,
    "description": "Увлажнитель воздуха с гигростатом и фильтром для очистки воздуха от пыли и бактерий"
  },
  {
    "name": "Увлажнитель воздуха Electrolux EHU-3710D",
    "categoryId": "5",
    "image": "/images/humidifiers/uz.webp",
    "stock": 15,
    "description": "Ультразвуковой увлажнитель воздуха с функцией ароматерапии и таймером"
  },
  {
    "name": "Увлажнитель воздуха Polaris PUH 6706I",
    "categoryId": "5",
    "image": "/images/humidifiers/wet.jpeg",
    "stock": 10,
    "description": "Ультразвуковой увлажнитель воздуха с технологией IonCare, которая удаляет вредные примеси и загрязнения из воздуха"
  },
  {
    "name": "Увлажнитель воздуха Bork U802",
    "categoryId": "5",
    "image": "/images/humidifiers/uz.webp",
    "stock": 3,
    "description": "Ультразвуковой увлажнитель воздуха с функцией гидромассажа и подсветкой LED"
  },
  {
    "name": "Увлажнитель воздуха Hyundai HUM-880",
    "categoryId": "5",
    "image": "/images/humidifiers/wet.jpeg",
    "stock": 7,
    "description": "Ультразвуковой увлажнитель воздуха с интеллектуальным дисплеем и контролем влажности"
  },
  {
    "name": "Увлажнитель Ultrasonic Mist",
    "categoryId": "5",
    "image": "/images/humidifiers/uz.webp",
    "stock": 8,
    "description": "Ультразвуковой увлажнитель воздуха с функцией диффузора и подсветкой."
  },
  {
    "name": "Увлажнитель-ионизатор Misty",
    "categoryId": "5",
    "image": "/images/humidifiers/wet.jpeg",
    "stock": 15,
    "description": "Увлажнитель воздуха с функцией ионизации и увлажнения."
  },
  {
    "name": "Увлажнитель-очиститель Bionaire",
    "categoryId": "5",
    "image": "/images/humidifiers/uz.webp",
    "stock": 20,
    "description": "Увлажнитель воздуха с функцией очистки и увлажнения."
  },
  {
    "name": "Увлажнитель-фильтр LG",
    "categoryId": "5",
    "image": "/images/humidifiers/wet.jpeg",
    "stock": 12,
    "description": "Увлажнитель воздуха с водным фильтром и функцией увлажнения."
  },
  {
    "name": "Увлажнитель Air-O-Swiss",
    "categoryId": "5",
    "image": "/images/humidifiers/uz.webp",
    "stock": 5,
    "description": "Профессиональный увлажнитель воздуха с двойной фильтрацией."
  },
  {
    "name": "Увлажнитель-увлажнитель настольный",
    "categoryId": "5",
    "image": "/images/humidifiers/wet.jpeg",
    "stock": 17,
    "description": "Маленький настольный увлажнитель воздуха для дома и офиса."
  },
  {
    "name": "Увлажнитель-очиститель с дистанционным управлением",
    "categoryId": "5",
    "image": "/images/humidifiers/uz.webp",
    "stock": 9,
    "description": "Увлажнитель воздуха с очисткой и дистанционным управлением."
  }
]
